Appendix C — Giant Pumpkin – Pumpkin King
…
print(pumpkin_weight_summary)

# A tibble: 21 × 8
   country       n mean_wt median_wt sd_wt min_wt max_wt iqr_wt
   <chr>     <int>   <dbl>     <dbl> <dbl>  <dbl>  <dbl>  <dbl>
 1 Australia     5    252.     164.   187. 105.     534    245.
 2 Austria     602    349.     301.   299.   0.8    995.   521.
 3 Belgium     360    558.     561.   253.   1.32  1000.   361.
 4 Canada     4522    294.     123    307.   0.24   999    491.
 5 Finland     244    166.      87.4  195.   1      950.   233.
 6 France      405    231.      94.5  274.   1.18   996.   353.
 7 Germany    2175    286.     176.   278.   0.1   1000.   391.
 8 Ireland      21    194.     108    228.  16.5    918    170.
 9 Italy       846    305.     199.   265.   1.2    999.   385.
10 Japan       358    283.     167.   275.   7.7    992.   412.
# ℹ 11 more rows
…
